reg_file_wavedata.vcd
$date
	Sun Jun 21 23:03:00 2020
$end
$version
	Icarus Verilog
$end
$timescale
	100ps
$end
$scope module tb $end
$var wire 1 ! WRITE_MEM $end
$var wire 32 " WRITE_DATA_MEM [31:0] $end
$var wire 1 # WRITE_CPU $end
$var wire 1 $ READ_MEM $end
$var wire 32 % READ_DATA_MEM [31:0] $end
$var wire 8 & READ_DATA_CPU [7:0] $end
$var wire 1 ' READ_CPU $end
$var wire 128 ( READMEMDATA [127:0] $end
$var wire 1 ) READ $end
$var wire 32 * PC [31:0] $end
$var wire 8 + OUT1 [7:0] $end
$var wire 32 , INSTRUCTION [31:0] $end
$var wire 10 - INADDRESS [9:0] $end
$var wire 1 . BUSY_CPU_I $end
$var wire 1 / BUSY_CPU $end
$var wire 1 0 BUSY_COMBINED $end
$var wire 1 1 BUSYMEM $end
$var wire 1 2 BUSY $end
$var wire 8 3 ALU_RESULT [7:0] $end
$var wire 6 4 ADDRESS_MEM [5:0] $end
$var wire 6 5 ADDRESSMEM [5:0] $end
$var reg 1 6 CLK $end
$var reg 1 7 RESET $end
$scope module CMEM $end
$var wire 1 6 CLK $end
$var wire 1 7 RESET $end
$var wire 8 8 WRITE_DATA_CPU [7:0] $end
$var wire 1 # WRITE_CPU $end
$var wire 1 9 TAG_COMP_RESULT $end
$var wire 32 : READ_DATA_MEM [31:0] $end
$var wire 1 ' READ_CPU $end
$var wire 8 ; DATA_WORD [7:0] $end
$var wire 1 2 BUSY_MEM $end
$var wire 8 < ADDRESS_CPU [7:0] $end
$var reg 6 = ADDRESS_MEM [5:0] $end
$var reg 1 / BUSY_CPU $end
$var reg 8 > CACHE_READ [7:0] $end
$var reg 8 ? DIRTY [7:0] $end
$var reg 1 @ DIRTY_INDEX $end
$var reg 1 A EXTRACT_DATA_BLOCK $end
$var reg 1 B HIT $end
$var reg 3 C INDEX [2:0] $end
$var reg 2 D OFFSET [1:0] $end
$var reg 8 E READ_DATA_CPU [7:0] $end
$var reg 1 $ READ_MEM $end
$var reg 3 F TAG_ADDRESS [2:0] $end
$var reg 3 G TAG_INDEX [2:0] $end
$var reg 8 H VALID [7:0] $end
$var reg 1 I VALID_INDEX $end
$var reg 32 J WRITE_DATA_MEM [31:0] $end
$var reg 1 ! WRITE_MEM $end
$var reg 3 K next_state [2:0] $end
$var reg 3 L state [2:0] $end
$var integer 32 M i [31:0] $end
$scope module comparison $end
$var wire 3 N ARR1 [2:0] $end
$var wire 3 O ARR2 [2:0] $end
$var reg 1 9 OUT $end
$upscope $end
$scope module select_by_offset $end
$var wire 32 P DATA_BLOCK [31:0] $end
$var wire 2 Q OFFSET [1:0] $end
$var reg 8 R DATA_WORD [7:0] $end
$upscope $end
$upscope $end
$scope module DMEM $end
$var wire 6 S address [5:0] $end
$var wire 1 6 clock $end
$var wire 1 $ read $end
$var wire 1 7 reset $end
$var wire 1 ! write $end
$var wire 32 T writedata [31:0] $end
$var reg 1 2 busywait $end
$var reg 1 U readaccess $end
$var reg 32 V readdata [31:0] $end
$var reg 1 W writeaccess $end
$var integer 32 X i [31:0] $end
$upscope $end
$scope module icache $end
$var wire 128 Y BLOCKINDEX [127:0] $end
$var wire 1 6 CLK $end
$var wire 1 Z HIT $end
$var wire 10 [ INADDRESS [9:0] $end
$var wire 1 7 RESET $end
$var wire 3 \ TAGINDEX [2:0] $end
$var wire 1 ] VALIDINDEX $end
$var wire 1 ^ TAGCOMP $end
$var wire 3 _ TAGADDRESS [2:0] $end
$var wire 128 ` READMEMDATA [127:0] $end
$var wire 4 a OFFSETADDRESS [3:0] $end
$var wire 3 b INDEXADDRESS [2:0] $end
$var wire 1 1 BUSYMEM $end
$var reg 6 c ADDRESSMEM [5:0] $end
$var reg 1 . BUSYCACHE $end
$var reg 1 ) READ $end
$var reg 1 d READACCESS $end
$var reg 32 e READWORD [31:0] $end
$var reg 32 f SELECTWORD [31:0] $end
$var reg 8 g VALID [7:0] $end
$var reg 3 h next_state [2:0] $end
$var reg 3 i state [2:0] $end
$var integer 32 j i [31:0] $end
$upscope $end
$scope module imem $end
$var wire 6 k address [5:0] $end
$var wire 1 6 clock $end
$var wire 1 ) read $end
$var reg 1 1 busywait $end
$var reg 1 l readaccess $end
$var reg 128 m readdata [127:0] $end
$upscope $end
$scope module mycpu $end
$var wire 1 0 BUSY $end
$var wire 1 6 CLK $end
$var wire 32 n INSTRUCTION [31:0] $end
$var wire 8 o MEM_ADRESS [7:0] $end
$var wire 8 p MEM_OUT [7:0] $end
$var wire 32 q PC [31:0] $end
$var wire 1 7 RESET $end
$var wire 8 r WRITE_DATA [7:0] $end
$var wire 1 s ZERO $end
$var wire 32 t PC_OUT [31:0] $end
$var wire 8 u OUT2 [7:0] $end
$var wire 8 v OUT1 [7:0] $end
$var wire 8 w MUX_2_OUT [7:0] $end
$var wire 8 x MUX_1_OUT [7:0] $end
$var wire 8 y IN [7:0] $end
$var wire 8 z COMP_OPERAND [7:0] $end
$var wire 8 { ALU_RESULT [7:0] $end
$var wire 32 | ADD [31:0] $end
$var reg 1 } BEQ $end
$var reg 1 ~ BNE $end
$var reg 8 !" IMMEDIATE [7:0] $end
$var reg 3 "" INADDRESS [2:0] $end
$var reg 1 #" J $end
$var reg 1 $" MUX1 $end
$var reg 1 %" MUX2 $end
$var reg 1 &" MUX3 $end
$var reg 8 '" OPCODE [7:0] $end
$var reg 3 (" OUT1ADDRESS [2:0] $end
$var reg 3 )" OUT2ADDRESS [2:0] $end
$var reg 1 ' READ_MEM $end
$var reg 3 *" SELECT_OP [2:0] $end
$var reg 8 +" SHIFTS [7:0] $end
$var reg 1 ," WRITE $end
$var reg 1 # WRITE_MEM $end
$scope module mux1 $end
$var wire 1 $" SELECT $end
$var wire 8 -" OPERAND2 [7:0] $end
$var wire 8 ." OPERAND1 [7:0] $end
$var reg 8 /" MUXOUT [7:0] $end
$upscope $end
$scope module mux2 $end
$var wire 8 0" OPERAND1 [7:0] $end
$var wire 8 1" OPERAND2 [7:0] $end
$var wire 1 %" SELECT $end
$var reg 8 2" MUXOUT [7:0] $end
$upscope $end
$scope module mux3 $end
$var wire 8 3" OPERAND2 [7:0] $end
$var wire 1 &" SELECT $end
$var wire 8 4" OPERAND1 [7:0] $end
$var reg 8 5" MUXOUT [7:0] $end
$upscope $end
$scope module myadder $end
$var wire 1 } BEQ $end
$var wire 1 ~ BNE $end
$var wire 1 #" J $end
$var wire 32 6" PC [31:0] $end
$var wire 8 7" SHIFTS [7:0] $end
$var wire 1 s ZERO $end
$var wire 32 8" CAL_SHIFTS [31:0] $end
$var reg 32 9" ADD [31:0] $end
$var reg 32 :" CHECK [31:0] $end
$var reg 1 ;" OUT1 $end
$var reg 1 <" OUT2 $end
$var reg 1 =" OUT3 $end
$var reg 1 >" OUT4 $end
$var reg 32 ?" PC_INC [31:0] $end
$scope module shifts $end
$var wire 8 @" SHIFTS [7:0] $end
$var reg 32 A" OFFSET [31:0] $end
$upscope $end
$upscope $end
$scope module myalu $end
$var wire 8 B" AND_I [7:0] $end
$var wire 8 C" DATA2 [7:0] $end
$var wire 8 D" FD_I [7:0] $end
$var wire 8 E" OR_I [7:0] $end
$var wire 3 F" SELECT [2:0] $end
$var wire 8 G" DATA1 [7:0] $end
$var wire 8 H" ADD_I [7:0] $end
$var reg 8 I" RESULT [7:0] $end
$var reg 1 s ZERO $end
$upscope $end
$scope module mycu $end
$var wire 32 J" ADD [31:0] $end
$var wire 32 K" ADDER2 [31:0] $end
$var wire 1 0 BUSY $end
$var wire 1 6 CLK $end
$var wire 32 L" PC [31:0] $end
$var wire 1 7 RESET $end
$var wire 32 M" PC_INC [31:0] $end
$var wire 32 N" ADDER1 [31:0] $end
$var reg 32 O" PC_OUT [31:0] $end
$scope module add4 $end
$var wire 32 P" PC [31:0] $end
$var wire 32 Q" PC4 [31:0] $end
$upscope $end
$upscope $end
$scope module myreg $end
$var wire 1 0 BUSY $end
$var wire 1 6 CLK $end
$var wire 8 R" IN [7:0] $end
$var wire 3 S" INADDRESS [2:0] $end
$var wire 3 T" OUT1ADDRESS [2:0] $end
$var wire 3 U" OUT2ADDRESS [2:0] $end
$var wire 1 7 RESET $end
$var wire 1 ," WRITE $end
$var reg 8 V" OUT1 [7:0] $end
$var reg 8 W" OUT2 [7:0] $end
$upscope $end
$scope module neg $end
$var wire 8 X" OPERAND [7:0] $end
$var reg 8 Y" COMP_OPERAND [7:0] $end
$var integer 32 Z" i [31:0] $end
$upscope $end
$upscope $end
$upscope $end
$enddefinitions $end
#0
$dumpvars
bx Z"
bx Y"
bx X"
bx W"
bx V"
bx U"
bx T"
bx S"
bx R"
bx Q"
bx P"
bx O"
bx N"
bx M"
bx L"
b0 K"
b0 J"
bx I"
bx H"
bx G"
bx F"
bx E"
bx D"
bx C"
bx B"
bx A"
bx @"
b0 ?"
x>"
x="
x<"
x;"
bx :"
bx 9"
bx 8"
bx 7"
bz 6"
bx 5"
bx 4"
bx 3"
bx 2"
bx 1"
bx 0"
bx /"
bx ."
bx -"
x,"
bx +"
bx *"
bx )"
bx ("
bx '"
x&"
x%"
x$"
x#"
bx ""
bx !"
x~
x}
b0 |
bx {
bx z
bx y
bx x
bx w
bx v
bx u
bx t
xs
bx r
bx q
bx p
bx o
bx n
bx m
0l
bx k
bx j
bx i
bx h
bx g
bx f
bx e
xd
bx c
bx b
bx a
bx `
bx _
x^
x]
bx \
bx [
xZ
bx Y
bx X
xW
bx V
xU
bx T
bx S
bx R
bx Q
bx P
bx O
bx N
bx M
bx L
bx K
bx J
xI
bx H
bx G
bx F
bx E
bx D
bx C
xB
xA
x@
bx ?
bx >
bx =
bx <
bx ;
bx :
x9
bx 8
07
16
bx 5
bx 4
bx 3
x2
01
x0
x/
x.
bx -
bx ,
bx +
bx *
x)
bx (
x'
bx &
bx %
x$
x#
bx "
x!
$end
#10
00
0)
0!
0$
b0 h
0Z
b0 K
b0 i
b0 L
0/
b0 ?
b0 H
b1000 M
0.
b0 g
b1000 j
0d
0W
0U
02
b100000000 X
17
#20
b111 _
b111 b
b1100 a
b1111111100 -
b1111111100 [
b11111111111111111111111111111100 *
b11111111111111111111111111111100 q
b11111111111111111111111111111100 L"
b11111111111111111111111111111100 P"
b11111111111111111111111111111100 t
b11111111111111111111111111111100 O"
#30
b0 \
0]
b0 M"
b0 N"
b0 Q"
#40
0^
06
#60
07
#80
16
#90
b1 h
1d
b0 _
b0 b
b0 a
b0 -
b0 [
b0 *
b0 q
b0 L"
b0 P"
b0 t
b0 O"
#100
1^
b100 M"
b100 N"
b100 Q"
#120
06
#160
10
1.
1l
11
b0 5
b0 c
b0 k
1)
b1 h
b1 i
16
#200
06
#240
16
#280
06
#320
16
#360
06
#400
16
#440
06
#480
16
#520
06
#560
16
#600
06
#640
16
bx00000001 (
bx00000001 `
bx00000001 m
#680
06
#720
16
#760
06
#800
16
#840
06
#880
16
#920
06
#960
16
#1000
06
#1040
16
bx0000000000000001 (
bx0000000000000001 `
bx0000000000000001 m
#1080
06
#1120
16
#1160
06
#1200
16
#1240
06
#1280
16
#1320
06
#1360
16
#1400
06
#1440
16
bx000000010000000000000001 (
bx000000010000000000000001 `
bx000000010000000000000001 m
#1480
06
#1520
16
#1560
06
#1600
16
#1640
06
#1680
16
#1720
06
#1760
16
#1800
06
#1840
16
bx00000000000000010000000000000001 (
bx00000000000000010000000000000001 `
bx00000000000000010000000000000001 m
#1880
06
#1920
16
#1960
06
#2000
16
#2040
06
#2080
16
#2120
06
#2160
16
#2200
06
#2240
16
bx0000001000000000000000010000000000000001 (
bx0000001000000000000000010000000000000001 `
bx0000001000000000000000010000000000000001 m
#2280
06
#2320
16
#2360
06
#2400
16
#2440
06
#2480
16
#2520
06
#2560
16
#2600
06
#2640
16
bx000000000000001000000000000000010000000000000001 (
bx000000000000001000000000000000010000000000000001 `
bx000000000000001000000000000000010000000000000001 m
#2680
06
#2720
16
#2760
06
#2800
16
#2840
06
#2880
16
#2920
06
#2960
16
#3000
06
#3040
16
bx00000010000000000000001000000000000000010000000000000001 (
bx00000010000000000000001000000000000000010000000000000001 `
bx00000010000000000000001000000000000000010000000000000001 m
#3080
06
#3120
16
#3160
06
#3200
16
#3240
06
#3280
16
#3320
06
#3360
16
#3400
06
#3440
16
bx0000000000000010000000000000001000000000000000010000000000000001 (
bx0000000000000010000000000000001000000000000000010000000000000001 `
bx0000000000000010000000000000001000000000000000010000000000000001 m
#3480
06
#3520
16
#3560
06
#3600
16
#3640
06
#3680
16
#3720
06
#3760
16
#3800
06
#3840
16
bx000000110000000000000010000000000000001000000000000000010000000000000001 (
bx000000110000000000000010000000000000001000000000000000010000000000000001 `
bx000000110000000000000010000000000000001000000000000000010000000000000001 m
#3880
06
#3920
16
#3960
06
#4000
16
#4040
06
#4080
16
#4120
06
#4160
16
#4200
06
#4240
16
bx00000000000000110000000000000010000000000000001000000000000000010000000000000001 (
bx00000000000000110000000000000010000000000000001000000000000000010000000000000001 `
bx00000000000000110000000000000010000000000000001000000000000000010000000000000001 m
#4280
06
#4320
16
#4360
06
#4400
16
#4440
06
#4480
16
#4520
06
#4560
16
#4600
06
#4640
16
bx0000001100000000000000110000000000000010000000000000001000000000000000010000000000000001 (
bx0000001100000000000000110000000000000010000000000000001000000000000000010000000000000001 `
bx0000001100000000000000110000000000000010000000000000001000000000000000010000000000000001 m
#4680
06
#4720
16
#4760
06
#4800
16
#4840
06
#4880
16
#4920
06
#4960
16
#5000
06
#5040
16
bx000000000000001100000000000000110000000000000010000000000000001000000000000000010000000000000001 (
bx000000000000001100000000000000110000000000000010000000000000001000000000000000010000000000000001 `
bx000000000000001100000000000000110000000000000010000000000000001000000000000000010000000000000001 m
#5080
06
#5120
16
#5160
06
#5200
16
#5240
06
#5280
16
#5320
06
#5360
16
#5400
06
#5440
16
bx00000010000000000000001100000000000000110000000000000010000000000000001000000000000000010000000000000001 (
bx00000010000000000000001100000000000000110000000000000010000000000000001000000000000000010000000000000001 `
bx00000010000000000000001100000000000000110000000000000010000000000000001000000000000000010000000000000001 m
#5480
06
#5520
16
#5560
06
#5600
16
#5640
06
#5680
16
#5720
06
#5760
16
#5800
06
#5840
16
bx0000001100000010000000000000001100000000000000110000000000000010000000000000001000000000000000010000000000000001 (
bx0000001100000010000000000000001100000000000000110000000000000010000000000000001000000000000000010000000000000001 `
bx0000001100000010000000000000001100000000000000110000000000000010000000000000001000000000000000010000000000000001 m
#5880
06
#5920
16
#5960
06
#6000
16
#6040
06
#6080
16
#6120
06
#6160
16
#6200
06
#6240
16
bx000001010000001100000010000000000000001100000000000000110000000000000010000000000000001000000000000000010000000000000001 (
bx000001010000001100000010000000000000001100000000000000110000000000000010000000000000001000000000000000010000000000000001 `
bx000001010000001100000010000000000000001100000000000000110000000000000010000000000000001000000000000000010000000000000001 m
#6280
06
#6320
16
#6360
06
#6400
16
#6440
06
#6480
16
#6520
06
#6560
16
#6600
06
#6640
bx 5
bx c
bx k
0)
b10 i
b0 h
16
0l
01
b10000001010000001100000010000000000000001100000000000000110000000000000010000000000000001000000000000000010000000000000001 (
b10000001010000001100000010000000000000001100000000000000110000000000000010000000000000001000000000000000010000000000000001 `
b10000001010000001100000010000000000000001100000000000000110000000000000010000000000000001000000000000000010000000000000001 m
#6650
b1 g
#6660
1Z
1]
b10000001010000001100000010000000000000001100000000000000110000000000000010000000000000001000000000000000010000000000000001 Y
#6670
b1 )"
b1 U"
b0 ("
b0 T"
b1 ""
b1 S"
b1 +"
b1 7"
b1 @"
b1 !"
b1 0"
b10000000000000001 ,
b10000000000000001 e
b10000000000000001 n
b10000000000000001 f
#6680
b0 9"
b0 :"
0>"
0="
0<"
0;"
b1 w
b1 2"
b1 C"
0&"
0~
0}
0#"
0%"
1,"
b0 *"
b0 F"
0#
0'
b0 '"
06
#6690
b1 D
b1 Q
b0 P
b0 C
b0 F
b0 O
b1 y
b1 5"
b1 R"
0s
b1 3
b1 <
b1 o
b1 {
b1 4"
b1 I"
b11111111 x
b11111111 /"
b11111111 1"
b11111111 z
b11111111 -"
b11111111 Y"
b1000 Z"
b0x B"
bx1 E"
b1 D"
b0 u
b0 ."
b0 W"
b0 X"
b0 +
b0 8
b0 r
b0 v
b0 G"
b0 V"
b100 8"
b100 A"
#6699
09
#6700
b0 ;
b0 R
b0 x
b0 /"
b0 1"
b0 z
b0 -"
b0 Y"
b1 E"
b0 B"
#6710
b1 H"
#6720
00
b0 i
0.
16
#6730
b100 a
b100 -
b100 [
b100 *
b100 q
b100 L"
b100 P"
b100 t
b100 O"
#6740
b10 w
b10 2"
b10 C"
b10 )"
b10 U"
b10 ""
b10 S"
b10 +"
b10 7"
b10 @"
b10 !"
b10 0"
b100000000000000010 ,
b100000000000000010 e
b100000000000000010 n
b100000000000000010 f
b1000 M"
b1000 N"
b1000 Q"
#6750
b10 D
b10 Q
b10 y
b10 5"
b10 R"
b10 3
b10 <
b10 o
b10 {
b10 4"
b10 I"
b10 E"
b10 D"
#6760
b1000 8"
b1000 A"
b10 H"
06
#6800
16
#6810
b1000 a
b1000 -
b1000 [
b1000 *
b1000 q
b1000 L"
b1000 P"
b1000 t
b1000 O"
#6820
b11 w
b11 2"
b11 C"
b11 )"
b11 U"
b11 ""
b11 S"
b11 +"
b11 7"
b11 @"
b11 !"
b11 0"
b110000000000000011 ,
b110000000000000011 e
b110000000000000011 n
b110000000000000011 f
b1100 M"
b1100 N"
b1100 Q"
#6830
b11 D
b11 Q
b11 y
b11 5"
b11 R"
b11 3
b11 <
b11 o
b11 {
b11 4"
b11 I"
b11 E"
b11 D"
#6840
b1100 8"
b1100 A"
b11 H"
06
#6880
16
#6890
b1100 a
b1100 -
b1100 [
b1100 *
b1100 q
b1100 L"
b1100 P"
b1100 t
b1100 O"
#6900
b10 w
b10 2"
b10 C"
b10 )"
b10 U"
b11 ("
b11 T"
b101 ""
b101 S"
b101 +"
b101 7"
b101 @"
b10 !"
b10 0"
b10000001010000001100000010 ,
b10000001010000001100000010 e
b10000001010000001100000010 n
b10000001010000001100000010 f
b10000 M"
b10000 N"
b10000 Q"
#6910
b10 x
b10 /"
b10 1"
b11111101 z
b11111101 -"
b11111101 Y"
b1000 Z"
b10 E"
b10 D"
1%"
0$"
b1 *"
b1 F"
b10 '"
b10 u
b10 ."
b10 W"
b10 X"
b11 +
b11 8
b11 r
b11 v
b11 G"
b11 V"
#6920
b11111110 z
b11111110 -"
b11111110 Y"
b11 E"
b10 B"
b10100 8"
b10100 A"
06
#6930
b1 D
b1 Q
b1 C
b101 y
b101 5"
b101 R"
b101 3
b101 <
b101 o
b101 {
b101 4"
b101 I"
b101 H"
#6960
16
#6970
b1 b
b0 a
b10000 -
b10000 [
b10000 *
b10000 q
b10000 L"
b10000 P"
b10000 t
b10000 O"
#6980
bx00 8"
bx00 A"
b1 h
bx )"
bx U"
bx ("
bx T"
bx ""
bx S"
bx +"
bx 7"
bx @"
bx !"
bx 0"
0Z
bx ,
bx e
bx n
bx f
0]
bx Y
b10100 M"
b10100 N"
b10100 Q"
#6990
bx D
bx Q
bx P
bx C
bx F
bx O
bx y
bx 5"
bx R"
b0 w
b0 2"
b0 C"
xs
bx 3
bx <
bx o
bx {
bx 4"
bx I"
b0 x
b0 /"
b0 1"
b0 z
b0 -"
b0 Y"
b1000 Z"
x&"
x%"
x$"
x,"
bx *"
bx F"
bx '"
bx u
bx ."
bx W"
bx X"
bx +
bx 8
bx r
bx v
bx G"
bx V"
#7000
b1 w
b1 2"
b1 C"
b1 x
b1 /"
b1 1"
b0 D"
b1 z
b1 -"
b1 Y"
bx E"
b0 B"
06
#7010
b0x B"
bx1 E"
b1 D"
bx H"
#7040
10
1.
1l
11
b1 5
b1 c
b1 k
1)
b1 h
b1 i
16
#7080
06
#7120
16
#7160
06
#7200
16
#7240
06
#7280
16
#7320
06
#7360
16
#7400
06
#7440
16
#7480
06
#7520
16
#7560
06
#7600
16
#7640
06
#7680
16
#7720
06
#7760
16
#7800
06
#7840
16
#7880
06
#7920
16
b10000001010000001100000010000000000000001100000000000000110000000000000010000000000000001000000000000000010000010100000001 (
b10000001010000001100000010000000000000001100000000000000110000000000000010000000000000001000000000000000010000010100000001 `
b10000001010000001100000010000000000000001100000000000000110000000000000010000000000000001000000000000000010000010100000001 m
#7960
06
#8000
16
#8040
06
#8080
16
#8120
06
#8160
16
#8200
06
#8240
16
#8280
06
#8320
16
b10000001010000001100000010000000000000001100000000000000110000000000000010000000000000001000000000000001000000010100000001 (
b10000001010000001100000010000000000000001100000000000000110000000000000010000000000000001000000000000001000000010100000001 `
b10000001010000001100000010000000000000001100000000000000110000000000000010000000000000001000000000000001000000010100000001 m
#8360
06
#8400
16
#8440
06
#8480
16
#8520
06
#8560
16
#8600
06
#8640
16
#8680
06
#8720
16
b10000001010000001100000010000000000000001100000000000000110000000000000010000000000000001000000011000001000000010100000001 (
b10000001010000001100000010000000000000001100000000000000110000000000000010000000000000001000000011000001000000010100000001 `
b10000001010000001100000010000000000000001100000000000000110000000000000010000000000000001000000011000001000000010100000001 m
#8760
06
#8800
16
#8840
06
#8880
16
#8920
06
#8960
16
#9000
06
#9040
16
#9080
06
#9120
16
b10000001010000001100000010000000000000001100000000000000110000000000000010000000000000010000000011000001000000010100000001 (
b10000001010000001100000010000000000000001100000000000000110000000000000010000000000000010000000011000001000000010100000001 `
b10000001010000001100000010000000000000001100000000000000110000000000000010000000000000010000000011000001000000010100000001 m
#9160
06
#9200
16
#9240
06
#9280
16
#9320
06
#9360
16
#9400
06
#9440
16
#9480
06
#9520
16
b10000001010000001100000010000000000000001100000000000000110000000000000010000001010000010000000011000001000000010100000001 (
b10000001010000001100000010000000000000001100000000000000110000000000000010000001010000010000000011000001000000010100000001 `
b10000001010000001100000010000000000000001100000000000000110000000000000010000001010000010000000011000001000000010100000001 m
#9560
06
#9600
16
#9640
06
#9680
16
#9720
06
#9760
16
#9800
06
#9840
16
#9880
06
#9920
16
b10000001010000001100000010000000000000001100000000000000110000000000000110000001010000010000000011000001000000010100000001 (
b10000001010000001100000010000000000000001100000000000000110000000000000110000001010000010000000011000001000000010100000001 `
b10000001010000001100000010000000000000001100000000000000110000000000000110000001010000010000000011000001000000010100000001 m
#9960
06
#10000
16
#10040
06
#10080
16
#10120
06
#10160
16
#10200
06
#10240
16
#10280
06
#10320
16
b10000001010000001100000010000000000000001100000000000000110000001000000110000001010000010000000011000001000000010100000001 (
b10000001010000001100000010000000000000001100000000000000110000001000000110000001010000010000000011000001000000010100000001 `
b10000001010000001100000010000000000000001100000000000000110000001000000110000001010000010000000011000001000000010100000001 m
#10360
06
#10400
16
#10440
06
#10480
16
#10520
06
#10560
16
#10600
06
#10640
16
#10680
06
#10720
16
#10760
06
#10800
16
#10840
06
#10880
16
#10920
06
#10960
16
#11000
06
#11040
16
#11080
06
#11120
16
b10000001010000001100000010000000000000001100000011000000110000001000000110000001010000010000000011000001000000010100000001 (
b10000001010000001100000010000000000000001100000011000000110000001000000110000001010000010000000011000001000000010100000001 `
b10000001010000001100000010000000000000001100000011000000110000001000000110000001010000010000000011000001000000010100000001 m
#11160
06
#11200
16
#11240
06
#11280
16
#11320
06
#11360
16
#11400
06
#11440
16
#11480
06
#11520
16
b10000001010000001100000010000000000000000000000011000000110000001000000110000001010000010000000011000001000000010100000001 (
b10000001010000001100000010000000000000000000000011000000110000001000000110000001010000010000000011000001000000010100000001 `
b10000001010000001100000010000000000000000000000011000000110000001000000110000001010000010000000011000001000000010100000001 m
#11560
06
#11600
16
#11640
06
#11680
16
#11720
06
#11760
16
#11800
06
#11840
16
#11880
06
#11920
16
b10000001010000001100000010000010110000000000000011000000110000001000000110000001010000010000000011000001000000010100000001 (
b10000001010000001100000010000010110000000000000011000000110000001000000110000001010000010000000011000001000000010100000001 `
b10000001010000001100000010000010110000000000000011000000110000001000000110000001010000010000000011000001000000010100000001 m
#11960
06
#12000
16
#12040
06
#12080
16
#12120
06
#12160
16
#12200
06
#12240
16
#12280
06
#12320
16
b10000001010000001100000100000010110000000000000011000000110000001000000110000001010000010000000011000001000000010100000001 (
b10000001010000001100000100000010110000000000000011000000110000001000000110000001010000010000000011000001000000010100000001 `
b10000001010000001100000100000010110000000000000011000000110000001000000110000001010000010000000011000001000000010100000001 m
#12360
06
#12400
16
#12440
06
#12480
16
#12520
06
#12560
16
#12600
06
#12640
16
#12680
06
#12720
16
b10000001010000010000000100000010110000000000000011000000110000001000000110000001010000010000000011000001000000010100000001 (
b10000001010000010000000100000010110000000000000011000000110000001000000110000001010000010000000011000001000000010100000001 `
b10000001010000010000000100000010110000000000000011000000110000001000000110000001010000010000000011000001000000010100000001 m
#12760
06
#12800
16
#12840
06
#12880
16
#12920
06
#12960
16
#13000
06
#13040
16
#13080
06
#13120
16
b10000000000000010000000100000010110000000000000011000000110000001000000110000001010000010000000011000001000000010100000001 (
b10000000000000010000000100000010110000000000000011000000110000001000000110000001010000010000000011000001000000010100000001 `
b10000000000000010000000100000010110000000000000011000000110000001000000110000001010000010000000011000001000000010100000001 m
#13160
06
#13200
16
#13240
06
#13280
16
#13320
06
#13360
16
#13400
06
#13440
16
#13480
06
#13520
bx 5
bx c
bx k
0)
b10 i
b0 h
16
0l
01
b1011000000000000010000000100000010110000000000000011000000110000001000000110000001010000010000000011000001000000010100000001 (
b1011000000000000010000000100000010110000000000000011000000110000001000000110000001010000010000000011000001000000010100000001 `
b1011000000000000010000000100000010110000000000000011000000110000001000000110000001010000010000000011000001000000010100000001 m
#13530
b11 g
#13540
1Z
1]
b1011000000000000010000000100000010110000000000000011000000110000001000000110000001010000010000000011000001000000010100000001 Y
#13550
b1 )"
b1 U"
b101 ("
b101 T"
b100 ""
b100 S"
b100 +"
b100 7"
b100 @"
b1 !"
b1 0"
b11000001000000010100000001 ,
b11000001000000010100000001 e
b11000001000000010100000001 n
b11000001000000010100000001 f
#13560
0&"
1%"
1$"
1,"
b1 *"
b1 F"
b11 '"
06
#13570
b11111110 w
b11111110 2"
b11111110 C"
b11111110 x
b11111110 /"
b11111110 1"
b11111110 z
b11111110 -"
b11111110 Y"
b1000 Z"
b1 u
b1 ."
b1 W"
b1 X"
b101 +
b101 8
b101 r
b101 v
b101 G"
b101 V"
b10000 8"
b10000 A"
#13580
b11111111 w
b11111111 2"
b11111111 C"
b11111111 x
b11111111 /"
b11111111 1"
b11111110 D"
b11111111 z
b11111111 -"
b11111111 Y"
b11111111 E"
b100 B"
#13590
b101 B"
b11111111 D"
#13600
00
b0 D
b0 Q
b0 P
b1 C
b0 F
b0 O
b100 y
b100 5"
b100 R"
0s
b100 3
b100 <
b100 o
b100 {
b100 4"
b100 I"
b0 i
0.
b100 H"
16
#13610
b100 a
b10100 -
b10100 [
b10100 *
b10100 q
b10100 L"
b10100 P"
b10100 t
b10100 O"
#13620
b100 )"
b100 U"
b110 ""
b110 S"
b110 +"
b110 7"
b110 @"
b100 !"
b100 0"
b10000001100000010100000100 ,
b10000001100000010100000100 e
b10000001100000010100000100 n
b10000001100000010100000100 f
b11000 M"
b11000 N"
b11000 Q"
#13630
b100 w
b100 2"
b100 C"
b100 x
b100 /"
b100 1"
b11111011 z
b11111011 -"
b11111011 Y"
b1000 Z"
0$"
b10 '"
b100 u
b100 ."
b100 W"
b100 X"
#13640
b100 B"
b101 E"
b100 D"
b11111100 z
b11111100 -"
b11111100 Y"
b11000 8"
b11000 A"
06
#13650
b1 D
b1 Q
b10 C
b1001 y
b1001 5"
b1001 R"
b1001 3
b1001 <
b1001 o
b1001 {
b1001 4"
b1001 I"
b1001 H"
#13680
16
#13690
b1000 a
b11000 -
b11000 [
b11000 *
b11000 q
b11000 L"
b11000 P"
b11000 t
b11000 O"
#13700
b0 8"
b0 A"
b11 )"
b11 U"
b11 ("
b11 T"
b0 ""
b0 S"
b0 +"
b0 7"
b0 @"
b11 !"
b11 0"
b1011000000000000001100000011 ,
b1011000000000000001100000011 e
b1011000000000000001100000011 n
b1011000000000000001100000011 f
b11100 M"
b11100 N"
b11100 Q"
#13710
10
b0 D
b0 Q
b1 C
bx y
bx 5"
bx R"
1/
b11 w
b11 2"
b11 C"
b100 3
b100 <
b100 o
b100 {
b100 4"
b100 I"
b11111100 x
b11111100 /"
b11111100 1"
b1000 Z"
x&"
1#
0%"
x$"
0,"
b0 *"
b0 F"
b1011 '"
b11 u
b11 ."
b11 W"
b11 X"
b11 +
b11 8
b11 r
b11 v
b11 G"
b11 V"
#13720
b11 D
b11 Q
b0 C
b1 K
b11111101 x
b11111101 /"
b11111101 1"
b11 3
b11 <
b11 o
b11 {
b11 4"
b11 I"
0B
0I
0@
0A
b0 G
b0 N
b11 D"
b11111101 z
b11111101 -"
b11111101 Y"
b11 E"
b11 B"
06
#13729
19
#13730
b110 H"
#13760
1U
12
b0 4
b0 =
b0 S
1$
b1 K
b1 L
16
#13800
06
#13840
16
#13880
06
#13920
16
#13960
06
#14000
16
#14040
06
#14080
16
#14120
06
#14160
16
#14200
06
#14240
16
bx00000000 %
bx00000000 :
bx00000000 V
#14280
06
#14320
16
#14360
06
#14400
16
#14440
06
#14480
16
#14520
06
#14560
16
#14600
06
#14640
16
bx0000000000000000 %
bx0000000000000000 :
bx0000000000000000 V
#14680
06
#14720
16
#14760
06
#14800
16
#14840
06
#14880
16
#14920
06
#14960
16
#15000
06
#15040
16
bx000000000000000000000000 %
bx000000000000000000000000 :
bx000000000000000000000000 V
#15080
06
#15120
16
#15160
06
#15200
16
#15240
06
#15280
16
#15320
06
#15360
16
#15400
06
#15440
bx 4
bx =
bx S
0$
b11 L
b0 K
16
0U
02
b0 %
b0 :
b0 V
#15450
b1 H
#15460
1B
1I
#15480
06
#15520
00
b0 L
0/
16
